{
  "type": "service_account",
  "project_id": "amor-de-pet-d7170",
  "private_key_id": "dcb159bfcbf9f5d8f9f2411f8ddb521d2af371e0",
  "private_key": "-----BEGIN PRIVATE KEY-----\nMIIEvwIBADANBgkqhkiG9w0BAQEFAASCBKkwggSlAgEAAoIBAQCbRj2EzTNzgm0k\nJqiQRFOEUsYhObD3IMjGfDFxao4ykNsMBw3Cr5N2uERRBT1Q0T6QXqhGbjcw4LFy\nRsuwGXuoD3xCAO0Z7QFOlgcJsKv3shsj1VCwnwdg9PzxThZwEfYzmQj1WKL3454K\ndzv7WjAt1Ai19MsBg4l/OMeSiL6Jzg1qRUxFjhqNhvX/729Sh645Zv1xn4lY5hML\nHfK229oX6ujg3j9uRITS4gm2hkUHq+QYCb5oxFSWp+8AfKlAgwSiLqgbBUzfZT20\nFwmE6R6mTdAFn59f8J87ZQrbISjMOh6uve2gwozdt8CT66v2lj1sEsxRkv2kelSE\nohBWPvi1AgMBAAECggEAB/g4Np2Ap0xZtToNu0/ieH92H2TyZhDG9VcRA5j8QPCp\n6YlgJa600ypciUsLTV9cBnVxTiIgj4/s06h6EmkQbX0T++BHyyWcxE+Tf2YTwYQg\n+/saJ+KVsp6IcAs5wBlP6XCQouUggjgq168sgzdrEyMXql0s4UBC2aaMqcL+gpye\nHBYZTyxm+2vXPF9zA4dHvzYIVcLqno78PzjbW9wwHz9nZTFvA0/7HENI1qYPwOMy\njK7F4SPNwd18EAtaidO3GH2JEDMVLZcJnpGUcsszSZG7MhbhIJj4iqfyKHg9vZEM\nx3l3whmE+eHuO99DU0n4kGVMhX8GuByPHrcgjT76+QKBgQDP8eLe5wJqj4xKBsoE\nLinH7HhEERCx72rm5OTe/VIxxfYLpLvuFSLPdzy1K1xKw/fcvuGGk5Mx2DmmhxTG\nxdM5910Pbp3CFjAq/kgtH7dzQwPgXNjKmp3pvMcl4MZtxm8yXU2SRb8uI6hhScVS\nVJgoLuVcUDwgVorTEsbT+FCsuQKBgQC/KFf4fREgbrR4sywMX5LUPsFwFY5Me7gv\nk8m6flfUKW2m3n/MOIo56lBLKy74TwI2gTidNkUGr6XdWn6J74vlD2uXg5Tt61fg\nHGb033I9JcGNzRyCbSW4UeL+TvjwHvFF5Hma4SWmWX09oMIVx97aUwyasm7qnMdc\ngz8pPGxF3QKBgQCdi8D8an99Jrb+WvhxhFwpWXKg92DzvtX6i48Pl1PP3BEXLz8n\nGaJfFxLKnEh3aNQAzinmIScTS6QaFBvcoYLwVwaNq5wgsVjbKf6bGX2O+UYVlaK2\nlcBwl5M2kn8kKoSS3vfni6pWFbP7yb2TK/5/60/gyfVT9t2FH6O+c1MEGQKBgQCQ\n/xoTW1KVZkOwVj/wNsKaCewSh9dDPokMVa6rrlASl0YcUCNiFfULTyeOjPf4031b\nOJNn9JVRKATJLW5UVIapvhOffuiFu4ERdpnF3oO5zBzP4ahhakc1U6+5tM9w3Bep\nK0/uYh972d980qbFfLEWq+4gnX4yqa8zBj7vmWyLZQKBgQC5mRGK/eKY8BPhBHCj\nEHnlb+42DcdfwEIvAUp2yxOVPK/9ahhkbYznHd+zLj3HRRcr3YOSmolP/AvZE2Ya\nCKJ+F8NeiMDOFhL6kMLKB1lbvUqGzf69YLzzg+kZMzsTHFlrpAlN3nQisfyCkLKN\nQ/DWoLC8lnuBFoL1XdbApRNdVw==\n-----END PRIVATE KEY-----\n",
  "client_email": "firebase-adminsdk-xd49c@amor-de-pet-d7170.iam.gserviceaccount.com",
  "client_id": "109955395994531092556",
  "auth_uri": "https://accounts.google.com/o/oauth2/auth",
  "token_uri": "https://oauth2.googleapis.com/token",
  "auth_provider_x509_cert_url": "https://www.googleapis.com/oauth2/v1/certs",
  "client_x509_cert_url": "https://www.googleapis.com/robot/v1/metadata/x509/firebase-adminsdk-xd49c%40amor-de-pet-d7170.iam.gserviceaccount.com"
}
